{
	"info": {
		"_postman_id": "5f4c723b-ff6d-4531-8de4-c6939f8bbfd7",
		"name": "AbcMobile",
		"schema": "https://schema.getpostman.com/json/collection/v2.1.0/collection.json"
	},
	"item": [
		{
			"name": "Register user",
			"request": {
				"method": "POST",
				"header": [],
				"url": {
					"raw": "{{url}}/api/auth/register?email=eu@yandex.ru&password=123456&password_confirmation=123456",
					"host": [
						"{{url}}"
					],
					"path": [
						"api",
						"auth",
						"register"
					],
					"query": [
						{
							"key": "email",
							"value": "eu@yandex.ru"
						},
						{
							"key": "password",
							"value": "123456"
						},
						{
							"key": "password_confirmation",
							"value": "123456"
						}
					]
				}
			},
			"response": []
		},
		{
			"name": "Login user",
			"request": {
				"method": "POST",
				"header": [],
				"url": {
					"raw": "{{url}}/api/auth/login?email=eu@yandex.ru&password=123456",
					"host": [
						"{{url}}"
					],
					"path": [
						"api",
						"auth",
						"login"
					],
					"query": [
						{
							"key": "email",
							"value": "eu@yandex.ru"
						},
						{
							"key": "password",
							"value": "123456"
						}
					]
				}
			},
			"response": []
		},
		{
			"name": "Update user",
			"request": {
				"auth": {
					"type": "bearer",
					"bearer": [
						{
							"key": "token",
							"value": "eyJ0eXAiOiJKV1QiLCJhbGciOiJSUzI1NiJ9.eyJhdWQiOiIxIiwianRpIjoiNjcwMzBkZDg4YTkyNGJjNDI1YzM5OTEzY2U5NjM4ZGEzNzVjMmIzMTBiNjM0NGJiNTg1NjY5MGQxYmFmYzAwMGYxZjYyZGQzMDg2ZmUyYzkiLCJpYXQiOjE2NDM0NzI3NjEsIm5iZiI6MTY0MzQ3Mjc2MSwiZXhwIjoxNjc1MDA4NzYxLCJzdWIiOiIxIiwic2NvcGVzIjpbXX0.wsrY84d-4OkamrYgv7gOgskXK5LN3CAprG9lSDrZm5W8XDiOeSoTn4Kjnb4aSB50xqTHwvXeOBlsbok_PqDM80yDy-hwfCsZ33vTf7qetp3iPtH6C04QXe4q3i0UL0IDgzXz48tY4NNrnWa-pYQb_DEk8YWA0T7ksNszX6D_9u_Dl3RUBAfdErsOy9x0QDmfPw8THCc5osFHt-CnA_XFa1-I13b5mkR88bSgRtFGGit_haoazvfmxkn9K8IqKHBoj0vR98ekLLHRcgGX0ni8LwdKtSFRXRvZRz3HAT2MV01tV5UahCimxLXCl8C6FwfUw4FZ5k1Sr_eeAWuByUNm4G-2T5t2DHsKKZKqErKb1s8VudlVmgKxp5L_jtN94dXdJ_lm156Og9lohaCd1JiBu-B2sY_8lBAXQSEYsX10iwsEdZSSPsx-JS2OB1lowTUG9Y4YjmkLGGRLQHD8o6zeh81UsDHh6E9YAL34F5IbRz6YzhybPfFo-VLLsAE3K9yyF-VF8xR3sM9rCLMF6EGx14F2ujS3IfA7UON21GUzhKMt1q3QaosMKaJTJ6_BKYtrr-A_1cqA-CiTdValUC2FTcNXWbcxpqCyKoXz1x--HPhiHGUItlB4Vu-nA020CzUwCebg7cyhLLu9hp6Zo5cboQmm6swtWo1CnERx4H9qyKo",
							"type": "string"
						}
					]
				},
				"method": "PUT",
				"header": [],
				"url": {
					"raw": "{{url}}/api/user?language=Russian&timezone=RU",
					"host": [
						"{{url}}"
					],
					"path": [
						"api",
						"user"
					],
					"query": [
						{
							"key": "language",
							"value": "Russian"
						},
						{
							"key": "timezone",
							"value": "RU"
						}
					]
				}
			},
			"response": []
		},
		{
			"name": "Show user",
			"request": {
				"auth": {
					"type": "bearer",
					"bearer": [
						{
							"key": "token",
							"value": "eyJ0eXAiOiJKV1QiLCJhbGciOiJSUzI1NiJ9.eyJhdWQiOiIxIiwianRpIjoiNjcwMzBkZDg4YTkyNGJjNDI1YzM5OTEzY2U5NjM4ZGEzNzVjMmIzMTBiNjM0NGJiNTg1NjY5MGQxYmFmYzAwMGYxZjYyZGQzMDg2ZmUyYzkiLCJpYXQiOjE2NDM0NzI3NjEsIm5iZiI6MTY0MzQ3Mjc2MSwiZXhwIjoxNjc1MDA4NzYxLCJzdWIiOiIxIiwic2NvcGVzIjpbXX0.wsrY84d-4OkamrYgv7gOgskXK5LN3CAprG9lSDrZm5W8XDiOeSoTn4Kjnb4aSB50xqTHwvXeOBlsbok_PqDM80yDy-hwfCsZ33vTf7qetp3iPtH6C04QXe4q3i0UL0IDgzXz48tY4NNrnWa-pYQb_DEk8YWA0T7ksNszX6D_9u_Dl3RUBAfdErsOy9x0QDmfPw8THCc5osFHt-CnA_XFa1-I13b5mkR88bSgRtFGGit_haoazvfmxkn9K8IqKHBoj0vR98ekLLHRcgGX0ni8LwdKtSFRXRvZRz3HAT2MV01tV5UahCimxLXCl8C6FwfUw4FZ5k1Sr_eeAWuByUNm4G-2T5t2DHsKKZKqErKb1s8VudlVmgKxp5L_jtN94dXdJ_lm156Og9lohaCd1JiBu-B2sY_8lBAXQSEYsX10iwsEdZSSPsx-JS2OB1lowTUG9Y4YjmkLGGRLQHD8o6zeh81UsDHh6E9YAL34F5IbRz6YzhybPfFo-VLLsAE3K9yyF-VF8xR3sM9rCLMF6EGx14F2ujS3IfA7UON21GUzhKMt1q3QaosMKaJTJ6_BKYtrr-A_1cqA-CiTdValUC2FTcNXWbcxpqCyKoXz1x--HPhiHGUItlB4Vu-nA020CzUwCebg7cyhLLu9hp6Zo5cboQmm6swtWo1CnERx4H9qyKo",
							"type": "string"
						}
					]
				},
				"method": "GET",
				"header": [],
				"url": {
					"raw": "{{url}}/api/user",
					"host": [
						"{{url}}"
					],
					"path": [
						"api",
						"user"
					],
					"query": [
						{
							"key": "language",
							"value": "Russian",
							"disabled": true
						},
						{
							"key": "timezone",
							"value": "RU",
							"disabled": true
						}
					]
				}
			},
			"response": []
		}
	],
	"event": [
		{
			"listen": "prerequest",
			"script": {
				"type": "text/javascript",
				"exec": [
					""
				]
			}
		},
		{
			"listen": "test",
			"script": {
				"type": "text/javascript",
				"exec": [
					""
				]
			}
		}
	],
	"variable": [
		{
			"key": "url",
			"value": ""
		}
	]
}